%YAML 1.1
%TAG !u! tag:unity3d.com,2011:
--- !u!114 &11400000
MonoBehaviour:
  m_ObjectHideFlags: 0
  m_CorrespondingSourceObject: {fileID: 0}
  m_PrefabInstance: {fileID: 0}
  m_PrefabAsset: {fileID: 0}
  m_GameObject: {fileID: 0}
  m_Enabled: 1
  m_EditorHideFlags: 0
  m_Script: {fileID: 11500000, guid: 18ba5bd99441995418840f3ae3571065, type: 3}
  m_Name: ActivityCollection.GeoSpatial
  m_EditorClassIdentifier: 
  activities:
  - {fileID: 11400000, guid: d4634b9d0d8adf540b01551f3e61b598, type: 2}
