%YAML 1.1
%TAG !u! tag:unity3d.com,2011:
--- !u!114 &11400000
MonoBehaviour:
  m_ObjectHideFlags: 0
  m_CorrespondingSourceObject: {fileID: 0}
  m_PrefabInstance: {fileID: 0}
  m_PrefabAsset: {fileID: 0}
  m_GameObject: {fileID: 0}
  m_Enabled: 1
  m_EditorHideFlags: 0
  m_Script: {fileID: 11500000, guid: 8cfdba8a4da84954b87f731da5b0e413, type: 3}
  m_Name: AppEvent.Object
  m_EditorClassIdentifier: 
  m_int: 0
  m_text: 
  m_scriptableObject: {fileID: 0}
  m_myBool: 0
