{
    "name": "YYG.Packages.Unity.AddressableModules",
    "rootNamespace": "YYG.Packages.Unity.AddressableModules",
    "references": [
        "GUID:9e24947de15b9834991c9d8411ea37cf",
        "GUID:84651a3751eca9349aac36a66bba901b",
        "GUID:260c90a781bcfb04091dcca4c5bcac55",
        "GUID:281526c490f4c83469e73864bb8c6ebf"
    ],
    "includePlatforms": [],
    "excludePlatforms": [],
    "allowUnsafeCode": false,
    "overrideReferences": false,
    "precompiledReferences": [],
    "autoReferenced": true,
    "defineConstraints": [],
    "versionDefines": [],
    "noEngineReferences": false
}