%YAML 1.1
%TAG !u! tag:unity3d.com,2011:
--- !u!114 &11400000
MonoBehaviour:
  m_ObjectHideFlags: 0
  m_CorrespondingSourceObject: {fileID: 0}
  m_PrefabInstance: {fileID: 0}
  m_PrefabAsset: {fileID: 0}
  m_GameObject: {fileID: 0}
  m_Enabled: 1
  m_EditorHideFlags: 0
  m_Script: {fileID: 11500000, guid: bbb281ee3bf0b054c82ac2347e9e782c, type: 3}
  m_Name: Localization-Locales
  m_EditorClassIdentifier: 
  m_GroupName: Localization-Locales
  m_GUID: ec778bf197a0ceb40a2e109d6ea6c1ee
  m_SerializeEntries:
  - m_GUID: 7af8b58ac42776044a3cb18b2445ffa9
    m_Address: English (en)
    m_ReadOnly: 1
    m_SerializedLabels:
    - Locale
    FlaggedDuringContentUpdateRestriction: 0
  m_ReadOnly: 1
  m_Settings: {fileID: 11400000, guid: eb28a6ad86206904ca54e1cc0352e684, type: 2}
  m_SchemaSet:
    m_Schemas:
    - {fileID: 11400000, guid: 9a7d2fc8c7c84194884ad06d45aa3c95, type: 2}
    - {fileID: 11400000, guid: 9a303bd35cf4f7a47a9feb23e862d478, type: 2}
