{
    "name": "YYG.Packages.Unity.Extensions",
    "rootNamespace": "YYG.Packages.Unity.Extensions",
    "references": [],
    "includePlatforms": [],
    "excludePlatforms": [],
    "allowUnsafeCode": false,
    "overrideReferences": false,
    "precompiledReferences": [],
    "autoReferenced": true,
    "defineConstraints": [],
    "versionDefines": [],
    "noEngineReferences": false
}