{
    "name": "YYG.Packages.Unity.Utilities",
    "rootNamespace": "YYG.Packages.Unity.Utilities",
    "references": [
        "GUID:260c90a781bcfb04091dcca4c5bcac55",
        "GUID:0594d55087866be49adb9126395f60c1",
        "GUID:eec0964c48f6f4e40bc3ec2257ccf8c5",
        "GUID:6055be8ebefd69e48b49212b09b47b2f"
    ],
    "includePlatforms": [],
    "excludePlatforms": [],
    "allowUnsafeCode": false,
    "overrideReferences": false,
    "precompiledReferences": [],
    "autoReferenced": true,
    "defineConstraints": [],
    "versionDefines": [
        {
            "name": "com.unity.textmeshpro",
            "expression": "1",
            "define": "TEXTMESHPRO_AVAILABLE"
        }
    ],
    "noEngineReferences": false
}