{
    "name": "YYG.Packages.Unity.Utilities.Editor",
    "rootNamespace": "YYG.Packages.Unity.Utilities.Editor",
    "references": [
        "GUID:260c90a781bcfb04091dcca4c5bcac55",
        "GUID:234b104a493d41040b6abb1061b41c30",
        "GUID:5cafe39670b580040b4964d5aa650d58"
    ],
    "includePlatforms": [
        "Editor"
    ],
    "excludePlatforms": [],
    "allowUnsafeCode": false,
    "overrideReferences": false,
    "precompiledReferences": [],
    "autoReferenced": true,
    "defineConstraints": [],
    "versionDefines": [],
    "noEngineReferences": false
}